asn1crypto==0.24.0
aws-google-auth==0.0.32
awscli==1.16.246
beautifulsoup4==4.8.0
boto3==1.9.236
botocore==1.12.236
certifi==2019.9.11
cffi==1.12.3
chardet==3.0.4
Click==7.0
colorama==0.3.9
configparser==4.0.2
cryptography==2.7
docutils==0.15.2
entrypoints==0.3
Flask==1.1.1
idna==2.8
itsdangerous==1.1.0
jeepney==0.4.1
Jinja2==2.10.1
jmespath==0.9.4
keyring==19.2.0
keyrings.alt==3.1.1
lxml==4.4.1
MarkupSafe==1.1.1
nodeenv==1.3.3
Pillow==6.1.0
pyasn1==0.4.7
pycparser==2.19
python-dateutil==2.8.0
pytz==2019.2
PyYAML==5.1.2
requests==2.22.0
rsa==3.4.2
s3transfer==0.2.1
SecretStorage==3.1.1
six==1.12.0
soupsieve==1.9.4
tabulate==0.8.5
tzlocal==2.0.0
urllib3==1.25.6
Werkzeug==0.16.0
